Create 1 A 10 1 1 MINOR
Ignore 2 A 10 1 1 MINOR
Cancel 1 A 10 1 1 MINOR
Create 3 A 10 1 2 MINOR
Ignore 4 A 10 1 2 MINOR
Cancel 3 A 10 1 2 MINOR
Create 5 A 10 2 1 MINOR
Ignore 6 A 10 2 1 MINOR
Cancel 5 A 10 2 1 MINOR
Create 7 A 10 2 2 MINOR
Ignore 8 A 10 2 2 MINOR
Cancel 7 A 10 2 2 MINOR
Create 9 A 99 1 1 MINOR
Ignore 10 A 99 1 1 MINOR
Cancel 9 A 99 1 1 MINOR
Create 11 A 99 1 2 MINOR
Ignore 12 A 99 1 2 MINOR
Cancel 11 A 99 1 2 MINOR
Create 13 A 99 2 1 MINOR
Ignore 14 A 99 2 1 MINOR
Cancel 13 A 99 2 1 MINOR
Create 15 A 99 2 2 MINOR
Ignore 16 A 99 2 2 MINOR
Cancel 15 A 99 2 2 MINOR
Create 17 A 100 1 1 MAJOR
Activate Shield A
Ignore 18 A 100 1 1 MAJOR
Cancel 17 A 100 1 1 MAJOR
Create 19 A 100 1 2 MAJOR
Ignore 20 A 100 1 2 MAJOR
Cancel 19 A 100 1 2 MAJOR
Create 21 A 100 2 1 MAJOR
Ignore 22 A 100 2 1 MAJOR
Cancel 21 A 100 2 1 MAJOR
Create 23 A 100 2 2 MAJOR
Ignore 24 A 100 2 2 MAJOR
Cancel 23 A 100 2 2 MAJOR
Create 25 A 101 1 1 MAJOR
Ignore 26 A 101 1 1 MAJOR
Cancel 25 A 101 1 1 MAJOR
Create 27 A 101 1 2 MAJOR
Ignore 28 A 101 1 2 MAJOR
Cancel 27 A 101 1 2 MAJOR
Create 29 A 101 2 1 MAJOR
Ignore 30 A 101 2 1 MAJOR
Cancel 29 A 101 2 1 MAJOR
Create 31 A 101 2 2 MAJOR
Ignore 32 A 101 2 2 MAJOR
Cancel 31 A 101 2 2 MAJOR
Create 33 A 499 1 1 MAJOR
Ignore 34 A 499 1 1 MAJOR
Cancel 33 A 499 1 1 MAJOR
Create 35 A 499 1 2 MAJOR
Ignore 36 A 499 1 2 MAJOR
Cancel 35 A 499 1 2 MAJOR
Create 37 A 499 2 1 MAJOR
Ignore 38 A 499 2 1 MAJOR
Cancel 37 A 499 2 1 MAJOR
Create 39 A 499 2 2 MAJOR
Ignore 40 A 499 2 2 MAJOR
Cancel 39 A 499 2 2 MAJOR
Create 41 A 500 1 1 CRITICAL
Ignore 42 A 500 1 1 CRITICAL
Cancel 41 A 500 1 1 CRITICAL
Create 43 A 500 1 2 CRITICAL
Ignore 44 A 500 1 2 CRITICAL
Cancel 43 A 500 1 2 CRITICAL
Create 45 A 500 2 1 CRITICAL
Ignore 46 A 500 2 1 CRITICAL
Cancel 45 A 500 2 1 CRITICAL
Create 47 A 500 2 2 CRITICAL
Ignore 48 A 500 2 2 CRITICAL
Cancel 47 A 500 2 2 CRITICAL
Create 49 A 501 1 1 CRITICAL
Ignore 50 A 501 1 1 CRITICAL
Cancel 49 A 501 1 1 CRITICAL
Create 51 A 501 1 2 CRITICAL
Ignore 52 A 501 1 2 CRITICAL
Cancel 51 A 501 1 2 CRITICAL
Create 53 A 501 2 1 CRITICAL
Ignore 54 A 501 2 1 CRITICAL
Cancel 53 A 501 2 1 CRITICAL
Create 55 A 501 2 2 CRITICAL
Ignore 56 A 501 2 2 CRITICAL
Cancel 55 A 501 2 2 CRITICAL
Create 57 A 500 1 1 CRITICAL
Ignore 58 A 500 1 1 CRITICAL
Cancel 57 A 500 1 1 CRITICAL
Create 59 A 500 1 2 CRITICAL
Ignore 60 A 500 1 2 CRITICAL
Cancel 59 A 500 1 2 CRITICAL
Create 61 A 500 2 1 CRITICAL
Ignore 62 A 500 2 1 CRITICAL
Cancel 61 A 500 2 1 CRITICAL
Create 63 A 500 2 2 CRITICAL
Ignore 64 A 500 2 2 CRITICAL
Cancel 63 A 500 2 2 CRITICAL
Create 65 A 499 1 1 MAJOR
Ignore 66 A 499 1 1 MAJOR
Cancel 65 A 499 1 1 MAJOR
Create 67 A 499 1 2 MAJOR
Ignore 68 A 499 1 2 MAJOR
Cancel 67 A 499 1 2 MAJOR
Create 69 A 499 2 1 MAJOR
Ignore 70 A 499 2 1 MAJOR
Cancel 69 A 499 2 1 MAJOR
Create 71 A 499 2 2 MAJOR
Ignore 72 A 499 2 2 MAJOR
Cancel 71 A 499 2 2 MAJOR
Create 73 A 101 1 1 MAJOR
Ignore 74 A 101 1 1 MAJOR
Cancel 73 A 101 1 1 MAJOR
Create 75 A 101 1 2 MAJOR
Ignore 76 A 101 1 2 MAJOR
Cancel 75 A 101 1 2 MAJOR
Create 77 A 101 2 1 MAJOR
Ignore 78 A 101 2 1 MAJOR
Cancel 77 A 101 2 1 MAJOR
Create 79 A 101 2 2 MAJOR
Ignore 80 A 101 2 2 MAJOR
Cancel 79 A 101 2 2 MAJOR
Create 81 A 100 1 1 MAJOR
Ignore 82 A 100 1 1 MAJOR
Cancel 81 A 100 1 1 MAJOR
Create 83 A 100 1 2 MAJOR
Ignore 84 A 100 1 2 MAJOR
Cancel 83 A 100 1 2 MAJOR
Create 85 A 100 2 1 MAJOR
Ignore 86 A 100 2 1 MAJOR
Cancel 85 A 100 2 1 MAJOR
Create 87 A 100 2 2 MAJOR
Ignore 88 A 100 2 2 MAJOR
Cancel 87 A 100 2 2 MAJOR
Create 89 A 99 1 1 MINOR
Deactivate Shield A
Ignore 90 A 99 1 1 MINOR
Cancel 89 A 99 1 1 MINOR
Create 91 A 99 1 2 MINOR
Ignore 92 A 99 1 2 MINOR
Cancel 91 A 99 1 2 MINOR
Create 93 A 99 2 1 MINOR
Ignore 94 A 99 2 1 MINOR
Cancel 93 A 99 2 1 MINOR
Create 95 A 99 2 2 MINOR
Ignore 96 A 99 2 2 MINOR
Cancel 95 A 99 2 2 MINOR
Create 97 A 10 1 1 MINOR
Ignore 98 A 10 1 1 MINOR
Cancel 97 A 10 1 1 MINOR
Create 99 A 10 1 2 MINOR
Ignore 100 A 10 1 2 MINOR
Cancel 99 A 10 1 2 MINOR
Create 101 A 10 2 1 MINOR
Ignore 102 A 10 2 1 MINOR
Cancel 101 A 10 2 1 MINOR
Create 103 A 10 2 2 MINOR
Ignore 104 A 10 2 2 MINOR
Cancel 103 A 10 2 2 MINOR
Ignore 105 A 9 1 1 NONE
Ignore 106 A 9 1 1 NONE
Ignore 107 A 9 1 2 NONE
Ignore 108 A 9 1 2 NONE
Ignore 109 A 9 2 1 NONE
Ignore 110 A 9 2 1 NONE
Ignore 111 A 9 2 2 NONE
Ignore 112 A 9 2 2 NONE
Ignore 113 A 5 1 1 NONE
Ignore 114 A 5 1 1 NONE
Ignore 115 A 5 1 2 NONE
Ignore 116 A 5 1 2 NONE
Ignore 117 A 5 2 1 NONE
Ignore 118 A 5 2 1 NONE
Ignore 119 A 5 2 2 NONE
Ignore 120 A 5 2 2 NONE
