Case 69: Zebedeu is a good magician and Balbino was honest
Case nhecas: Zebedeu is a bad magician and Balbino was honest
Case nhecas: Zebedeu is a bad magician and Balbino was dishonest
Case 69: Zebedeu is a good magician and Balbino was dishonest
Case 5 mau magico: Zebedeu is a bad magician and Balbino was honest
Case nhecas: Zebedeu is a bad magician and Balbino was dishonest
